{
  "development": {
    "API_URI": "htp://localhost:8000",
    "UI_URI": "http://localhost:3000",
    "UI_PORT": 3000,
    "UI_HOST": "http://localhost"
  },
  "uat": {
    "API_URI": "http://dev-core.mtgseer.org",
    "UI_URI": "http://dev-ui.mtgseer.org"
  },
  "production": {
    "API_URI": "http://core.mtgseer.org",
    "UI_URI": "http://ui.mtgseer.org"
  }
}
